{
	"content": [{
		"id": 649,
		"fileId": "FNR-00000649",
		"fileName": "0095007654_billCycleUsageTemplate.xlsx",
		"fileType": "xlsx",
		"systemType": "PPU",
		"contentType": "BILLCYCLEUSAGE",
		"callbackuri": null,
		"submissionTime": "2020-11-09T10:46:44.000+0000",
		"completionTime": "2020-11-09T10:46:44.000+0000",
		"status": "REJECT",
		"fileResponse": "Billing Cycle is already sent to SAP , you are not allowed to Change Usages For Contract : 0051507411",
		"inputFileStoredAt": "mss/upload/usage/input/0095007654_billCycleUsageTemplate-202011091046-FNR-00000649.input.xlsx",
		"outputFileStoredAt": null,
		"totalRecords": 0,
		"processRecords": 0,
		"pendingRecords": 0,
		"createdBy": "reddy121",
		"updatedBy": "reddy121",
		"fullTextSearch": "FNR-00000649,xlsx,PPU,BILLCYCLEUSAGE,REJECT",
		"submissionTimeFormatted": "09-Nov-2020 10:46:44",
		"completionTimeFormatted": "09-Nov-2020 10:46:44"
	}, {
		"id": 648,
		"fileId": "FNR-00000648",
		"fileName": "0095007654_billCycleUsageTemplate.xlsx",
		"fileType": "xlsx",
		"systemType": "PPU",
		"contentType": "BILLCYCLEUSAGE",
		"callbackuri": null,
		"submissionTime": "2020-11-09T10:45:07.000+0000",
		"completionTime": "2020-11-09T10:45:08.000+0000",
		"status": "COMPLETED",
		"fileResponse": "File Upload Processed Successfully",
		"inputFileStoredAt": "mss/upload/usage/input/0095007654_billCycleUsageTemplate-202011091045-FNR-00000648.input.xlsx",
		"outputFileStoredAt": "mss/upload/usage/output/0095007654_billCycleUsageTemplate-202011091045-FNR-00000648.output.xlsx",
		"totalRecords": 2,
		"processRecords": 2,
		"pendingRecords": 0,
		"createdBy": "reddy121",
		"updatedBy": "reddy121",
		"fullTextSearch": "FNR-00000648,xlsx,PPU,BILLCYCLEUSAGE,COMPLETED",
		"submissionTimeFormatted": "09-Nov-2020 10:45:07",
		"completionTimeFormatted": "09-Nov-2020 10:45:08"
	}, {
		"id": 647,
		"fileId": "FNR-00000647",
		"fileName": "0095007654_billCycleUsageTemplate.xlsx",
		"fileType": "xlsx",
		"systemType": "PPU",
		"contentType": "BILLCYCLEUSAGE",
		"callbackuri": null,
		"submissionTime": "2020-11-09T09:44:17.000+0000",
		"completionTime": "2020-11-09T09:44:18.000+0000",
		"status": "REJECT",
		"fileResponse": "Usage quantity not provided for given Contract Number: 0051507411",
		"inputFileStoredAt": "mss/upload/usage/input/0095007654_billCycleUsageTemplate-202011090944-FNR-00000647.input.xlsx",
		"outputFileStoredAt": null,
		"totalRecords": 2,
		"processRecords": 0,
		"pendingRecords": 2,
		"createdBy": "reddy121",
		"updatedBy": "reddy121",
		"fullTextSearch": "FNR-00000647,xlsx,PPU,BILLCYCLEUSAGE,REJECT",
		"submissionTimeFormatted": "09-Nov-2020 09:44:17",
		"completionTimeFormatted": "09-Nov-2020 09:44:18"
	}, {
		"id": 646,
		"fileId": "FNR-00000646",
		"fileName": "0041138225_billCycleUsageTemplate.xlsx",
		"fileType": "xlsx",
		"systemType": "PPU",
		"contentType": "BILLCYCLEUSAGE",
		"callbackuri": null,
		"submissionTime": "2020-11-06T20:38:51.000+0000",
		"completionTime": "2020-11-06T20:38:52.000+0000",
		"status": "COMPLETED",
		"fileResponse": "File Upload Processed Successfully",
		"inputFileStoredAt": "mss/upload/usage/input/0041138225_billCycleUsageTemplate-202011062038-FNR-00000646.input.xlsx",
		"outputFileStoredAt": "mss/upload/usage/output/0041138225_billCycleUsageTemplate-202011062038-FNR-00000646.output.xlsx",
		"totalRecords": 2,
		"processRecords": 2,
		"pendingRecords": 0,
		"createdBy": "reddy121",
		"updatedBy": "reddy121",
		"fullTextSearch": "FNR-00000646,xlsx,PPU,BILLCYCLEUSAGE,COMPLETED",
		"submissionTimeFormatted": "06-Nov-2020 20:38:51",
		"completionTimeFormatted": "06-Nov-2020 20:38:52"
	}, {
		"id": 645,
		"fileId": "FNR-00000645",
		"fileName": "MultiContract_20201105_billCycleUsageTemplate (8).xlsx",
		"fileType": "xlsx",
		"systemType": "PPU",
		"contentType": "BILLCYCLEUSAGE",
		"callbackuri": null,
		"submissionTime": "2020-11-05T13:15:02.000+0000",
		"completionTime": "2020-11-05T13:15:03.000+0000",
		"status": "REJECT",
		"fileResponse": "Usage quantity not provided for given Contract Number: 0040836647",
		"inputFileStoredAt": "mss/upload/usage/input/MultiContract_20201105_billCycleUsageTemplate (8)-202011051315-FNR-00000645.input.xlsx",
		"outputFileStoredAt": null,
		"totalRecords": 0,
		"processRecords": 0,
		"pendingRecords": 0,
		"createdBy": "reddy121",
		"updatedBy": "reddy121",
		"fullTextSearch": "FNR-00000645,xlsx,PPU,BILLCYCLEUSAGE,REJECT",
		"submissionTimeFormatted": "05-Nov-2020 13:15:02",
		"completionTimeFormatted": "05-Nov-2020 13:15:03"
	}],
	"pageable": {
		"sort": {
			"unsorted": false,
			"sorted": true
		},
		"offset": 0,
		"pageSize": 5,
		"pageNumber": 0,
		"paged": true,
		"unpaged": false
	},
	"totalElements": 235,
	"last": false,
	"totalPages": 47,
	"first": true,
	"sort": {
		"unsorted": false,
		"sorted": true
	},
	"size": 5,
	"number": 0,
	"numberOfElements": 5
}